%YAML 1.1
%TAG !u! tag:unity3d.com,2011:
--- !u!114 &11400000
MonoBehaviour:
  m_ObjectHideFlags: 0
  m_CorrespondingSourceObject: {fileID: 0}
  m_PrefabInstance: {fileID: 0}
  m_PrefabAsset: {fileID: 0}
  m_GameObject: {fileID: 0}
  m_Enabled: 1
  m_EditorHideFlags: 0
  m_Script: {fileID: 11500000, guid: 9af800caa1d54694883ee9bcafd509e9, type: 3}
  m_Name: Briller
  m_EditorClassIdentifier: 
  Question: "Briller hj\xE6lper hvilke del af kroppen?"
  Answers:
  - isRight: 0
    text: "Den del som er ved siden af \xF8jnene"
  - isRight: 1
    text: Den del som er ved siden af legemenet som ligger over for den del over der
      ligger over hagen.
  - isRight: 0
    text: "\xD8jenbrynnets overlegeme"
  - isRight: 0
    text: Uralis Pluralis
