%YAML 1.1
%TAG !u! tag:unity3d.com,2011:
--- !u!29 &1
OcclusionCullingSettings:
  m_ObjectHideFlags: 0
  serializedVersion: 2
  m_OcclusionBakeSettings:
    smallestOccluder: 5
    smallestHole: 0.25
    backfaceThreshold: 100
  m_SceneGUID: 00000000000000000000000000000000
  m_OcclusionCullingData: {fileID: 0}
--- !u!104 &2
RenderSettings:
  m_ObjectHideFlags: 0
  serializedVersion: 9
  m_Fog: 0
  m_FogColor: {r: 0.5, g: 0.5, b: 0.5, a: 1}
  m_FogMode: 3
  m_FogDensity: 0.01
  m_LinearFogStart: 0
  m_LinearFogEnd: 300
  m_AmbientSkyColor: {r: 0.212, g: 0.227, b: 0.259, a: 1}
  m_AmbientEquatorColor: {r: 0.114, g: 0.125, b: 0.133, a: 1}
  m_AmbientGroundColor: {r: 0.047, g: 0.043, b: 0.035, a: 1}
  m_AmbientIntensity: 0
  m_AmbientMode: 0
  m_SubtractiveShadowColor: {r: 0.42, g: 0.478, b: 0.627, a: 1}
  m_SkyboxMaterial: {fileID: 0}
  m_HaloStrength: 0.5
  m_FlareStrength: 1
  m_FlareFadeSpeed: 3
  m_HaloTexture: {fileID: 0}
  m_SpotCookie: {fileID: 10001, guid: 0000000000000000e000000000000000, type: 0}
  m_DefaultReflectionMode: 0
  m_DefaultReflectionResolution: 128
  m_ReflectionBounces: 1
  m_ReflectionIntensity: 0
  m_CustomReflection: {fileID: 0}
  m_Sun: {fileID: 0}
  m_IndirectSpecularColor: {r: 0, g: 0, b: 0, a: 1}
  m_UseRadianceAmbientProbe: 0
--- !u!157 &3
LightmapSettings:
  m_ObjectHideFlags: 0
  serializedVersion: 11
  m_GIWorkflowMode: 0
  m_GISettings:
    serializedVersion: 2
    m_BounceScale: 1
    m_IndirectOutputScale: 1
    m_AlbedoBoost: 1
    m_EnvironmentLightingMode: 0
    m_EnableBakedLightmaps: 1
    m_EnableRealtimeLightmaps: 1
  m_LightmapEditorSettings:
    serializedVersion: 10
    m_Resolution: 2
    m_BakeResolution: 40
    m_AtlasSize: 1024
    m_AO: 0
    m_AOMaxDistance: 1
    m_CompAOExponent: 1
    m_CompAOExponentDirect: 0
    m_Padding: 2
    m_LightmapParameters: {fileID: 0}
    m_LightmapsBakeMode: 1
    m_TextureCompression: 1
    m_FinalGather: 0
    m_FinalGatherFiltering: 1
    m_FinalGatherRayCount: 256
    m_ReflectionCompression: 2
    m_MixedBakeMode: 2
    m_BakeBackend: 1
    m_PVRSampling: 1
    m_PVRDirectSampleCount: 32
    m_PVRSampleCount: 500
    m_PVRBounces: 2
    m_PVRFilterTypeDirect: 0
    m_PVRFilterTypeIndirect: 0
    m_PVRFilterTypeAO: 0
    m_PVRFilteringMode: 1
    m_PVRCulling: 1
    m_PVRFilteringGaussRadiusDirect: 1
    m_PVRFilteringGaussRadiusIndirect: 5
    m_PVRFilteringGaussRadiusAO: 2
    m_PVRFilteringAtrousPositionSigmaDirect: 0.5
    m_PVRFilteringAtrousPositionSigmaIndirect: 2
    m_PVRFilteringAtrousPositionSigmaAO: 1
    m_ShowResolutionOverlay: 1
  m_LightingDataAsset: {fileID: 0}
  m_UseShadowmask: 1
--- !u!196 &4
NavMeshSettings:
  serializedVersion: 2
  m_ObjectHideFlags: 0
  m_BuildSettings:
    serializedVersion: 2
    agentTypeID: 0
    agentRadius: 0.5
    agentHeight: 2
    agentSlope: 45
    agentClimb: 0.4
    ledgeDropHeight: 0
    maxJumpAcrossDistance: 0
    minRegionArea: 2
    manualCellSize: 0
    cellSize: 0.16666667
    manualTileSize: 0
    tileSize: 256
    accuratePlacement: 0
    debug:
      m_Flags: 0
  m_NavMeshData: {fileID: 0}
--- !u!1 &308727195
GameObject:
  m_ObjectHideFlags: 0
  m_CorrespondingSourceObject: {fileID: 0}
  m_PrefabInstance: {fileID: 0}
  m_PrefabAsset: {fileID: 0}
  serializedVersion: 6
  m_Component:
  - component: {fileID: 308727197}
  - component: {fileID: 308727196}
  m_Layer: 0
  m_Name: Directional Light
  m_TagString: Untagged
  m_Icon: {fileID: 0}
  m_NavMeshLayer: 0
  m_StaticEditorFlags: 0
  m_IsActive: 1
--- !u!108 &308727196
Light:
  m_ObjectHideFlags: 0
  m_CorrespondingSourceObject: {fileID: 0}
  m_PrefabInstance: {fileID: 0}
  m_PrefabAsset: {fileID: 0}
  m_GameObject: {fileID: 308727195}
  m_Enabled: 1
  serializedVersion: 8
  m_Type: 1
  m_Color: {r: 1, g: 0.95686275, b: 0.8392157, a: 1}
  m_Intensity: 1
  m_Range: 10
  m_SpotAngle: 30
  m_CookieSize: 10
  m_Shadows:
    m_Type: 2
    m_Resolution: -1
    m_CustomResolution: -1
    m_Strength: 1
    m_Bias: 0.05
    m_NormalBias: 0.4
    m_NearPlane: 0.2
  m_Cookie: {fileID: 0}
  m_DrawHalo: 0
  m_Flare: {fileID: 0}
  m_RenderMode: 0
  m_CullingMask:
    serializedVersion: 2
    m_Bits: 4294967295
  m_Lightmapping: 4
  m_LightShadowCasterMode: 0
  m_AreaSize: {x: 1, y: 1}
  m_BounceIntensity: 1
  m_ColorTemperature: 6570
  m_UseColorTemperature: 0
  m_ShadowRadius: 0
  m_ShadowAngle: 0
--- !u!4 &308727197
Transform:
  m_ObjectHideFlags: 0
  m_CorrespondingSourceObject: {fileID: 0}
  m_PrefabInstance: {fileID: 0}
  m_PrefabAsset: {fileID: 0}
  m_GameObject: {fileID: 308727195}
  m_LocalRotation: {x: 0.40821788, y: -0.23456968, z: 0.10938163, w: 0.8754261}
  m_LocalPosition: {x: 0, y: 3, z: 0}
  m_LocalScale: {x: 1, y: 1, z: 1}
  m_Children: []
  m_Father: {fileID: 0}
  m_RootOrder: 1
  m_LocalEulerAnglesHint: {x: 50, y: -30, z: 0}
--- !u!114 &1355790286 stripped
MonoBehaviour:
  m_CorrespondingSourceObject: {fileID: 11475086, guid: c0978251ff7b10d4fb954a4b56acd9f0,
    type: 3}
  m_PrefabInstance: {fileID: 1479595975}
  m_PrefabAsset: {fileID: 0}
  m_GameObject: {fileID: 0}
  m_Enabled: 1
  m_EditorHideFlags: 0
  m_Script: {fileID: 11500000, guid: 38de513803c5e60498ad31fbc327b120, type: 3}
  m_Name: 
  m_EditorClassIdentifier: 
--- !u!1001 &1479595975
PrefabInstance:
  m_ObjectHideFlags: 0
  serializedVersion: 2
  m_Modification:
    m_TransformParent: {fileID: 0}
    m_Modifications:
    - target: {fileID: 155310, guid: c0978251ff7b10d4fb954a4b56acd9f0, type: 3}
      propertyPath: m_Name
      value: LobbyManager
      objectReference: {fileID: 0}
    - target: {fileID: 22459552, guid: c0978251ff7b10d4fb954a4b56acd9f0, type: 3}
      propertyPath: m_LocalPosition.x
      value: 0
      objectReference: {fileID: 0}
    - target: {fileID: 22459552, guid: c0978251ff7b10d4fb954a4b56acd9f0, type: 3}
      propertyPath: m_LocalPosition.y
      value: 0
      objectReference: {fileID: 0}
    - target: {fileID: 22459552, guid: c0978251ff7b10d4fb954a4b56acd9f0, type: 3}
      propertyPath: m_LocalPosition.z
      value: 0
      objectReference: {fileID: 0}
    - target: {fileID: 22459552, guid: c0978251ff7b10d4fb954a4b56acd9f0, type: 3}
      propertyPath: m_LocalRotation.x
      value: 0
      objectReference: {fileID: 0}
    - target: {fileID: 22459552, guid: c0978251ff7b10d4fb954a4b56acd9f0, type: 3}
      propertyPath: m_LocalRotation.y
      value: 0
      objectReference: {fileID: 0}
    - target: {fileID: 22459552, guid: c0978251ff7b10d4fb954a4b56acd9f0, type: 3}
      propertyPath: m_LocalRotation.z
      value: 0
      objectReference: {fileID: 0}
    - target: {fileID: 22459552, guid: c0978251ff7b10d4fb954a4b56acd9f0, type: 3}
      propertyPath: m_LocalRotation.w
      value: 1
      objectReference: {fileID: 0}
    - target: {fileID: 22459552, guid: c0978251ff7b10d4fb954a4b56acd9f0, type: 3}
      propertyPath: m_RootOrder
      value: 3
      objectReference: {fileID: 0}
    - target: {fileID: 22459552, guid: c0978251ff7b10d4fb954a4b56acd9f0, type: 3}
      propertyPath: m_LocalEulerAnglesHint.x
      value: 0
      objectReference: {fileID: 0}
    - target: {fileID: 22459552, guid: c0978251ff7b10d4fb954a4b56acd9f0, type: 3}
      propertyPath: m_LocalEulerAnglesHint.y
      value: 0
      objectReference: {fileID: 0}
    - target: {fileID: 22459552, guid: c0978251ff7b10d4fb954a4b56acd9f0, type: 3}
      propertyPath: m_LocalEulerAnglesHint.z
      value: 0
      objectReference: {fileID: 0}
    - target: {fileID: 22459552, guid: c0978251ff7b10d4fb954a4b56acd9f0, type: 3}
      propertyPath: m_AnchoredPosition.x
      value: 0
      objectReference: {fileID: 0}
    - target: {fileID: 22459552, guid: c0978251ff7b10d4fb954a4b56acd9f0, type: 3}
      propertyPath: m_AnchoredPosition.y
      value: 0
      objectReference: {fileID: 0}
    - target: {fileID: 22459552, guid: c0978251ff7b10d4fb954a4b56acd9f0, type: 3}
      propertyPath: m_SizeDelta.x
      value: 0
      objectReference: {fileID: 0}
    - target: {fileID: 22459552, guid: c0978251ff7b10d4fb954a4b56acd9f0, type: 3}
      propertyPath: m_SizeDelta.y
      value: 0
      objectReference: {fileID: 0}
    - target: {fileID: 22459552, guid: c0978251ff7b10d4fb954a4b56acd9f0, type: 3}
      propertyPath: m_AnchorMin.x
      value: 0
      objectReference: {fileID: 0}
    - target: {fileID: 22459552, guid: c0978251ff7b10d4fb954a4b56acd9f0, type: 3}
      propertyPath: m_AnchorMin.y
      value: 0
      objectReference: {fileID: 0}
    - target: {fileID: 22459552, guid: c0978251ff7b10d4fb954a4b56acd9f0, type: 3}
      propertyPath: m_AnchorMax.x
      value: 0
      objectReference: {fileID: 0}
    - target: {fileID: 22459552, guid: c0978251ff7b10d4fb954a4b56acd9f0, type: 3}
      propertyPath: m_AnchorMax.y
      value: 0
      objectReference: {fileID: 0}
    - target: {fileID: 22459552, guid: c0978251ff7b10d4fb954a4b56acd9f0, type: 3}
      propertyPath: m_Pivot.x
      value: 0
      objectReference: {fileID: 0}
    - target: {fileID: 22459552, guid: c0978251ff7b10d4fb954a4b56acd9f0, type: 3}
      propertyPath: m_Pivot.y
      value: 0
      objectReference: {fileID: 0}
    - target: {fileID: 11475086, guid: c0978251ff7b10d4fb954a4b56acd9f0, type: 3}
      propertyPath: m_ShowLobbyGUI
      value: 0
      objectReference: {fileID: 0}
    - target: {fileID: 160802, guid: c0978251ff7b10d4fb954a4b56acd9f0, type: 3}
      propertyPath: m_IsActive
      value: 0
      objectReference: {fileID: 0}
    - target: {fileID: 178410, guid: c0978251ff7b10d4fb954a4b56acd9f0, type: 3}
      propertyPath: m_IsActive
      value: 0
      objectReference: {fileID: 0}
    - target: {fileID: 140634, guid: c0978251ff7b10d4fb954a4b56acd9f0, type: 3}
      propertyPath: m_IsActive
      value: 0
      objectReference: {fileID: 0}
    - target: {fileID: 22432700, guid: c0978251ff7b10d4fb954a4b56acd9f0, type: 3}
      propertyPath: m_AnchoredPosition.x
      value: 0
      objectReference: {fileID: 0}
    - target: {fileID: 22432700, guid: c0978251ff7b10d4fb954a4b56acd9f0, type: 3}
      propertyPath: m_SizeDelta.x
      value: 0
      objectReference: {fileID: 0}
    - target: {fileID: 22432700, guid: c0978251ff7b10d4fb954a4b56acd9f0, type: 3}
      propertyPath: m_AnchorMin.y
      value: 1
      objectReference: {fileID: 0}
    - target: {fileID: 22432700, guid: c0978251ff7b10d4fb954a4b56acd9f0, type: 3}
      propertyPath: m_AnchorMax.y
      value: 1
      objectReference: {fileID: 0}
    - target: {fileID: 22432700, guid: c0978251ff7b10d4fb954a4b56acd9f0, type: 3}
      propertyPath: m_AnchoredPosition.y
      value: -50
      objectReference: {fileID: 0}
    - target: {fileID: 22432700, guid: c0978251ff7b10d4fb954a4b56acd9f0, type: 3}
      propertyPath: m_SizeDelta.y
      value: 100
      objectReference: {fileID: 0}
    - target: {fileID: 22401550, guid: c0978251ff7b10d4fb954a4b56acd9f0, type: 3}
      propertyPath: m_SizeDelta.y
      value: 100
      objectReference: {fileID: 0}
    - target: {fileID: 22495014, guid: c0978251ff7b10d4fb954a4b56acd9f0, type: 3}
      propertyPath: m_AnchorMax.x
      value: 1
      objectReference: {fileID: 0}
    - target: {fileID: 22495014, guid: c0978251ff7b10d4fb954a4b56acd9f0, type: 3}
      propertyPath: m_AnchorMax.y
      value: 1
      objectReference: {fileID: 0}
    - target: {fileID: 22491464, guid: c0978251ff7b10d4fb954a4b56acd9f0, type: 3}
      propertyPath: m_LocalRotation.x
      value: -0
      objectReference: {fileID: 0}
    - target: {fileID: 22491464, guid: c0978251ff7b10d4fb954a4b56acd9f0, type: 3}
      propertyPath: m_LocalRotation.y
      value: -0
      objectReference: {fileID: 0}
    - target: {fileID: 22491464, guid: c0978251ff7b10d4fb954a4b56acd9f0, type: 3}
      propertyPath: m_LocalRotation.z
      value: -0
      objectReference: {fileID: 0}
    - target: {fileID: 22491464, guid: c0978251ff7b10d4fb954a4b56acd9f0, type: 3}
      propertyPath: m_AnchoredPosition.x
      value: 100
      objectReference: {fileID: 0}
    - target: {fileID: 22491464, guid: c0978251ff7b10d4fb954a4b56acd9f0, type: 3}
      propertyPath: m_SizeDelta.x
      value: 200
      objectReference: {fileID: 0}
    - target: {fileID: 22491464, guid: c0978251ff7b10d4fb954a4b56acd9f0, type: 3}
      propertyPath: m_Pivot.x
      value: 0.5
      objectReference: {fileID: 0}
    - target: {fileID: 148054, guid: c0978251ff7b10d4fb954a4b56acd9f0, type: 3}
      propertyPath: m_IsActive
      value: 1
      objectReference: {fileID: 0}
    - target: {fileID: 11477488, guid: c0978251ff7b10d4fb954a4b56acd9f0, type: 3}
      propertyPath: m_OnClick.m_PersistentCalls.m_Calls.Array.size
      value: 1
      objectReference: {fileID: 0}
    - target: {fileID: 11477488, guid: c0978251ff7b10d4fb954a4b56acd9f0, type: 3}
      propertyPath: m_Colors.m_NormalColor.g
      value: 1
      objectReference: {fileID: 0}
    - target: {fileID: 11477488, guid: c0978251ff7b10d4fb954a4b56acd9f0, type: 3}
      propertyPath: m_Colors.m_NormalColor.b
      value: 1
      objectReference: {fileID: 0}
    - target: {fileID: 11477488, guid: c0978251ff7b10d4fb954a4b56acd9f0, type: 3}
      propertyPath: m_Colors.m_HighlightedColor.r
      value: 0.9607843
      objectReference: {fileID: 0}
    - target: {fileID: 11477488, guid: c0978251ff7b10d4fb954a4b56acd9f0, type: 3}
      propertyPath: m_Colors.m_HighlightedColor.g
      value: 0.9607843
      objectReference: {fileID: 0}
    - target: {fileID: 11477488, guid: c0978251ff7b10d4fb954a4b56acd9f0, type: 3}
      propertyPath: m_Colors.m_HighlightedColor.b
      value: 0.9607843
      objectReference: {fileID: 0}
    - target: {fileID: 11477488, guid: c0978251ff7b10d4fb954a4b56acd9f0, type: 3}
      propertyPath: m_Colors.m_PressedColor.r
      value: 0.78431374
      objectReference: {fileID: 0}
    - target: {fileID: 11477488, guid: c0978251ff7b10d4fb954a4b56acd9f0, type: 3}
      propertyPath: m_Colors.m_PressedColor.g
      value: 0.78431374
      objectReference: {fileID: 0}
    - target: {fileID: 11477488, guid: c0978251ff7b10d4fb954a4b56acd9f0, type: 3}
      propertyPath: m_Colors.m_PressedColor.b
      value: 0.78431374
      objectReference: {fileID: 0}
    - target: {fileID: 11477488, guid: c0978251ff7b10d4fb954a4b56acd9f0, type: 3}
      propertyPath: m_Colors.m_DisabledColor.r
      value: 0.78431374
      objectReference: {fileID: 0}
    - target: {fileID: 11477488, guid: c0978251ff7b10d4fb954a4b56acd9f0, type: 3}
      propertyPath: m_Colors.m_DisabledColor.g
      value: 0.78431374
      objectReference: {fileID: 0}
    - target: {fileID: 11477488, guid: c0978251ff7b10d4fb954a4b56acd9f0, type: 3}
      propertyPath: m_Colors.m_DisabledColor.b
      value: 0.78431374
      objectReference: {fileID: 0}
    - target: {fileID: 11477488, guid: c0978251ff7b10d4fb954a4b56acd9f0, type: 3}
      propertyPath: m_Colors.m_FadeDuration
      value: 0.1
      objectReference: {fileID: 0}
    - target: {fileID: 11477488, guid: c0978251ff7b10d4fb954a4b56acd9f0, type: 3}
      propertyPath: m_TargetGraphic
      value: 
      objectReference: {fileID: 1817551950}
    - target: {fileID: 11477488, guid: c0978251ff7b10d4fb954a4b56acd9f0, type: 3}
      propertyPath: m_OnClick.m_PersistentCalls.m_Calls.Array.data[0].m_Target
      value: 
      objectReference: {fileID: 1355790286}
    - target: {fileID: 11477488, guid: c0978251ff7b10d4fb954a4b56acd9f0, type: 3}
      propertyPath: m_OnClick.m_PersistentCalls.m_Calls.Array.data[0].m_MethodName
      value: GoBackButton
      objectReference: {fileID: 0}
    - target: {fileID: 11477488, guid: c0978251ff7b10d4fb954a4b56acd9f0, type: 3}
      propertyPath: m_OnClick.m_PersistentCalls.m_Calls.Array.data[0].m_Arguments.m_ObjectArgumentAssemblyTypeName
      value: UnityEngine.Object, UnityEngine
      objectReference: {fileID: 0}
    - target: {fileID: 22442232, guid: c0978251ff7b10d4fb954a4b56acd9f0, type: 3}
      propertyPath: m_AnchorMin.y
      value: 0
      objectReference: {fileID: 0}
    - target: {fileID: 22442232, guid: c0978251ff7b10d4fb954a4b56acd9f0, type: 3}
      propertyPath: m_AnchorMax.x
      value: 1
      objectReference: {fileID: 0}
    - target: {fileID: 22442232, guid: c0978251ff7b10d4fb954a4b56acd9f0, type: 3}
      propertyPath: m_AnchorMax.y
      value: 1
      objectReference: {fileID: 0}
    - target: {fileID: 22442232, guid: c0978251ff7b10d4fb954a4b56acd9f0, type: 3}
      propertyPath: m_SizeDelta.x
      value: 0
      objectReference: {fileID: 0}
    - target: {fileID: 22442232, guid: c0978251ff7b10d4fb954a4b56acd9f0, type: 3}
      propertyPath: m_SizeDelta.y
      value: 0
      objectReference: {fileID: 0}
    - target: {fileID: 22442232, guid: c0978251ff7b10d4fb954a4b56acd9f0, type: 3}
      propertyPath: m_Pivot.x
      value: 0.5
      objectReference: {fileID: 0}
    - target: {fileID: 11489734, guid: c0978251ff7b10d4fb954a4b56acd9f0, type: 3}
      propertyPath: m_Sprite
      value: 
      objectReference: {fileID: 0}
    - target: {fileID: 11477878, guid: c0978251ff7b10d4fb954a4b56acd9f0, type: 3}
      propertyPath: m_Color.r
      value: 0.19607843
      objectReference: {fileID: 0}
    - target: {fileID: 11477878, guid: c0978251ff7b10d4fb954a4b56acd9f0, type: 3}
      propertyPath: m_Color.g
      value: 0.19607843
      objectReference: {fileID: 0}
    - target: {fileID: 11477878, guid: c0978251ff7b10d4fb954a4b56acd9f0, type: 3}
      propertyPath: m_Color.b
      value: 0.19607843
      objectReference: {fileID: 0}
    - target: {fileID: 11477878, guid: c0978251ff7b10d4fb954a4b56acd9f0, type: 3}
      propertyPath: m_FontData.m_FontSize
      value: 14
      objectReference: {fileID: 0}
    - target: {fileID: 11477878, guid: c0978251ff7b10d4fb954a4b56acd9f0, type: 3}
      propertyPath: m_FontData.m_FontStyle
      value: 1
      objectReference: {fileID: 0}
    - target: {fileID: 11477878, guid: c0978251ff7b10d4fb954a4b56acd9f0, type: 3}
      propertyPath: m_FontData.m_BestFit
      value: 1
      objectReference: {fileID: 0}
    - target: {fileID: 11477878, guid: c0978251ff7b10d4fb954a4b56acd9f0, type: 3}
      propertyPath: m_FontData.m_MinSize
      value: 10
      objectReference: {fileID: 0}
    - target: {fileID: 11477878, guid: c0978251ff7b10d4fb954a4b56acd9f0, type: 3}
      propertyPath: m_FontData.m_MaxSize
      value: 40
      objectReference: {fileID: 0}
    - target: {fileID: 11477878, guid: c0978251ff7b10d4fb954a4b56acd9f0, type: 3}
      propertyPath: m_Text
      value: Back
      objectReference: {fileID: 0}
    - target: {fileID: 11477878, guid: c0978251ff7b10d4fb954a4b56acd9f0, type: 3}
      propertyPath: m_FontData.m_Font
      value: 
      objectReference: {fileID: 12800000, guid: 5eaf1ebfd2c6b2b4ea36be4eba154827,
        type: 3}
    - target: {fileID: 1703477737191209791, guid: c0978251ff7b10d4fb954a4b56acd9f0,
        type: 3}
      propertyPath: m_IsActive
      value: 0
      objectReference: {fileID: 0}
    - target: {fileID: 1430815744501378429, guid: c0978251ff7b10d4fb954a4b56acd9f0,
        type: 3}
      propertyPath: m_IsActive
      value: 0
      objectReference: {fileID: 0}
    - target: {fileID: 1368192166248757984, guid: c0978251ff7b10d4fb954a4b56acd9f0,
        type: 3}
      propertyPath: m_IsActive
      value: 0
      objectReference: {fileID: 0}
    - target: {fileID: 198591364, guid: c0978251ff7b10d4fb954a4b56acd9f0, type: 3}
      propertyPath: m_AssetId.i0
      value: 192
      objectReference: {fileID: 0}
    - target: {fileID: 198591364, guid: c0978251ff7b10d4fb954a4b56acd9f0, type: 3}
      propertyPath: m_AssetId.i1
      value: 151
      objectReference: {fileID: 0}
    - target: {fileID: 198591364, guid: c0978251ff7b10d4fb954a4b56acd9f0, type: 3}
      propertyPath: m_AssetId.i2
      value: 130
      objectReference: {fileID: 0}
    - target: {fileID: 198591364, guid: c0978251ff7b10d4fb954a4b56acd9f0, type: 3}
      propertyPath: m_AssetId.i3
      value: 81
      objectReference: {fileID: 0}
    - target: {fileID: 198591364, guid: c0978251ff7b10d4fb954a4b56acd9f0, type: 3}
      propertyPath: m_AssetId.i4
      value: 255
      objectReference: {fileID: 0}
    - target: {fileID: 198591364, guid: c0978251ff7b10d4fb954a4b56acd9f0, type: 3}
      propertyPath: m_AssetId.i5
      value: 123
      objectReference: {fileID: 0}
    - target: {fileID: 198591364, guid: c0978251ff7b10d4fb954a4b56acd9f0, type: 3}
      propertyPath: m_AssetId.i6
      value: 16
      objectReference: {fileID: 0}
    - target: {fileID: 198591364, guid: c0978251ff7b10d4fb954a4b56acd9f0, type: 3}
      propertyPath: m_AssetId.i7
      value: 212
      objectReference: {fileID: 0}
    - target: {fileID: 198591364, guid: c0978251ff7b10d4fb954a4b56acd9f0, type: 3}
      propertyPath: m_AssetId.i8
      value: 251
      objectReference: {fileID: 0}
    - target: {fileID: 198591364, guid: c0978251ff7b10d4fb954a4b56acd9f0, type: 3}
      propertyPath: m_AssetId.i9
      value: 149
      objectReference: {fileID: 0}
    - target: {fileID: 198591364, guid: c0978251ff7b10d4fb954a4b56acd9f0, type: 3}
      propertyPath: m_AssetId.i10
      value: 74
      objectReference: {fileID: 0}
    - target: {fileID: 198591364, guid: c0978251ff7b10d4fb954a4b56acd9f0, type: 3}
      propertyPath: m_AssetId.i11
      value: 75
      objectReference: {fileID: 0}
    - target: {fileID: 198591364, guid: c0978251ff7b10d4fb954a4b56acd9f0, type: 3}
      propertyPath: m_AssetId.i12
      value: 86
      objectReference: {fileID: 0}
    - target: {fileID: 198591364, guid: c0978251ff7b10d4fb954a4b56acd9f0, type: 3}
      propertyPath: m_AssetId.i13
      value: 172
      objectReference: {fileID: 0}
    - target: {fileID: 198591364, guid: c0978251ff7b10d4fb954a4b56acd9f0, type: 3}
      propertyPath: m_AssetId.i14
      value: 217
      objectReference: {fileID: 0}
    - target: {fileID: 198591364, guid: c0978251ff7b10d4fb954a4b56acd9f0, type: 3}
      propertyPath: m_AssetId.i15
      value: 240
      objectReference: {fileID: 0}
    - target: {fileID: 6064278429370718652, guid: c0978251ff7b10d4fb954a4b56acd9f0,
        type: 3}
      propertyPath: m_IsActive
      value: 0
      objectReference: {fileID: 0}
    - target: {fileID: 778082688232223657, guid: c0978251ff7b10d4fb954a4b56acd9f0,
        type: 3}
      propertyPath: m_AnchorMax.x
      value: 0
      objectReference: {fileID: 0}
    - target: {fileID: 778082688232223657, guid: c0978251ff7b10d4fb954a4b56acd9f0,
        type: 3}
      propertyPath: m_AnchorMax.y
      value: 0
      objectReference: {fileID: 0}
    - target: {fileID: 778082688232223657, guid: c0978251ff7b10d4fb954a4b56acd9f0,
        type: 3}
      propertyPath: m_SizeDelta.x
      value: 0
      objectReference: {fileID: 0}
    - target: {fileID: 4497037208463723222, guid: c0978251ff7b10d4fb954a4b56acd9f0,
        type: 3}
      propertyPath: m_AnchorMax.x
      value: 1
      objectReference: {fileID: 0}
    - target: {fileID: 4497037208463723222, guid: c0978251ff7b10d4fb954a4b56acd9f0,
        type: 3}
      propertyPath: m_AnchorMax.y
      value: 1
      objectReference: {fileID: 0}
    - target: {fileID: 4497037208463723222, guid: c0978251ff7b10d4fb954a4b56acd9f0,
        type: 3}
      propertyPath: m_SizeDelta.x
      value: -17
      objectReference: {fileID: 0}
    - target: {fileID: 7133773590309951296, guid: c0978251ff7b10d4fb954a4b56acd9f0,
        type: 3}
      propertyPath: m_AnchorMax.x
      value: 0
      objectReference: {fileID: 0}
    - target: {fileID: 7133773590309951296, guid: c0978251ff7b10d4fb954a4b56acd9f0,
        type: 3}
      propertyPath: m_AnchorMax.y
      value: 1
      objectReference: {fileID: 0}
    - target: {fileID: 6665369570685853118, guid: c0978251ff7b10d4fb954a4b56acd9f0,
        type: 3}
      propertyPath: m_AnchorMax.x
      value: 1
      objectReference: {fileID: 0}
    - target: {fileID: 6665369570685853118, guid: c0978251ff7b10d4fb954a4b56acd9f0,
        type: 3}
      propertyPath: m_AnchorMax.y
      value: 1
      objectReference: {fileID: 0}
    m_RemovedComponents: []
  m_SourcePrefab: {fileID: 100100000, guid: c0978251ff7b10d4fb954a4b56acd9f0, type: 3}
--- !u!114 &1817551950 stripped
MonoBehaviour:
  m_CorrespondingSourceObject: {fileID: 3347323364482163085, guid: c0978251ff7b10d4fb954a4b56acd9f0,
    type: 3}
  m_PrefabInstance: {fileID: 1479595975}
  m_PrefabAsset: {fileID: 0}
  m_GameObject: {fileID: 0}
  m_Enabled: 1
  m_EditorHideFlags: 0
  m_Script: {fileID: -765806418, guid: f70555f144d8491a825f0804e09c671c, type: 3}
  m_Name: 
  m_EditorClassIdentifier: 
--- !u!1 &1960732139
GameObject:
  m_ObjectHideFlags: 0
  m_CorrespondingSourceObject: {fileID: 0}
  m_PrefabInstance: {fileID: 0}
  m_PrefabAsset: {fileID: 0}
  serializedVersion: 6
  m_Component:
  - component: {fileID: 1960732142}
  - component: {fileID: 1960732141}
  - component: {fileID: 1960732140}
  - component: {fileID: 1960732144}
  - component: {fileID: 1960732143}
  m_Layer: 0
  m_Name: Main Camera
  m_TagString: MainCamera
  m_Icon: {fileID: 0}
  m_NavMeshLayer: 0
  m_StaticEditorFlags: 0
  m_IsActive: 1
--- !u!81 &1960732140
AudioListener:
  m_ObjectHideFlags: 0
  m_CorrespondingSourceObject: {fileID: 0}
  m_PrefabInstance: {fileID: 0}
  m_PrefabAsset: {fileID: 0}
  m_GameObject: {fileID: 1960732139}
  m_Enabled: 1
--- !u!20 &1960732141
Camera:
  m_ObjectHideFlags: 0
  m_CorrespondingSourceObject: {fileID: 0}
  m_PrefabInstance: {fileID: 0}
  m_PrefabAsset: {fileID: 0}
  m_GameObject: {fileID: 1960732139}
  m_Enabled: 1
  serializedVersion: 2
  m_ClearFlags: 1
  m_BackGroundColor: {r: 0.19215687, g: 0.3019608, b: 0.4745098, a: 0}
  m_projectionMatrixMode: 1
  m_SensorSize: {x: 36, y: 24}
  m_LensShift: {x: 0, y: 0}
  m_GateFitMode: 2
  m_FocalLength: 50
  m_NormalizedViewPortRect:
    serializedVersion: 2
    x: 0
    y: 0
    width: 1
    height: 1
  near clip plane: 0.3
  far clip plane: 1000
  field of view: 60
  orthographic: 0
  orthographic size: 5
  m_Depth: -1
  m_CullingMask:
    serializedVersion: 2
    m_Bits: 4294967295
  m_RenderingPath: -1
  m_TargetTexture: {fileID: 0}
  m_TargetDisplay: 0
  m_TargetEye: 3
  m_HDR: 0
  m_AllowMSAA: 0
  m_AllowDynamicResolution: 0
  m_ForceIntoRT: 0
  m_OcclusionCulling: 1
  m_StereoConvergence: 10
  m_StereoSeparation: 0.022
--- !u!4 &1960732142
Transform:
  m_ObjectHideFlags: 0
  m_CorrespondingSourceObject: {fileID: 0}
  m_PrefabInstance: {fileID: 0}
  m_PrefabAsset: {fileID: 0}
  m_GameObject: {fileID: 1960732139}
  m_LocalRotation: {x: 0, y: 0, z: 0, w: 1}
  m_LocalPosition: {x: 0, y: 1, z: -10}
  m_LocalScale: {x: 1, y: 1, z: 1}
  m_Children: []
  m_Father: {fileID: 0}
  m_RootOrder: 0
  m_LocalEulerAnglesHint: {x: 0, y: 0, z: 0}
--- !u!114 &1960732143
MonoBehaviour:
  m_ObjectHideFlags: 0
  m_CorrespondingSourceObject: {fileID: 0}
  m_PrefabInstance: {fileID: 0}
  m_PrefabAsset: {fileID: 0}
  m_GameObject: {fileID: 1960732139}
  m_Enabled: 1
  m_EditorHideFlags: 0
  m_Script: {fileID: 11500000, guid: e8a636f62116c0a40bbfefdf876d4608, type: 3}
  m_Name: 
  m_EditorClassIdentifier: 
  boost: 3.5
  positionLerpTime: 0.2
  mouseSensitivityCurve:
    serializedVersion: 2
    m_Curve:
    - serializedVersion: 3
      time: 0
      value: 0.5
      inSlope: 0
      outSlope: 5
      tangentMode: 0
      weightedMode: 0
      inWeight: 0
      outWeight: 0
    - serializedVersion: 3
      time: 1
      value: 2.5
      inSlope: 0
      outSlope: 0
      tangentMode: 0
      weightedMode: 0
      inWeight: 0
      outWeight: 0
    m_PreInfinity: 2
    m_PostInfinity: 2
    m_RotationOrder: 4
  rotationLerpTime: 0.01
  invertY: 0
--- !u!114 &1960732144
MonoBehaviour:
  m_ObjectHideFlags: 0
  m_CorrespondingSourceObject: {fileID: 0}
  m_PrefabInstance: {fileID: 0}
  m_PrefabAsset: {fileID: 0}
  m_GameObject: {fileID: 1960732139}
  m_Enabled: 1
  m_EditorHideFlags: 0
  m_Script: {fileID: 11500000, guid: 23c1ce4fb46143f46bc5cb5224c934f6, type: 3}
  m_Name: 
  m_EditorClassIdentifier: 
--- !u!1 &2139745001
GameObject:
  m_ObjectHideFlags: 0
  m_CorrespondingSourceObject: {fileID: 0}
  m_PrefabInstance: {fileID: 0}
  m_PrefabAsset: {fileID: 0}
  serializedVersion: 6
  m_Component:
  - component: {fileID: 2139745005}
  - component: {fileID: 2139745004}
  - component: {fileID: 2139745003}
  - component: {fileID: 2139745002}
  m_Layer: 0
  m_Name: Cube
  m_TagString: Untagged
  m_Icon: {fileID: 0}
  m_NavMeshLayer: 0
  m_StaticEditorFlags: 0
  m_IsActive: 1
--- !u!65 &2139745002
BoxCollider:
  m_ObjectHideFlags: 0
  m_CorrespondingSourceObject: {fileID: 0}
  m_PrefabInstance: {fileID: 0}
  m_PrefabAsset: {fileID: 0}
  m_GameObject: {fileID: 2139745001}
  m_Material: {fileID: 0}
  m_IsTrigger: 0
  m_Enabled: 1
  serializedVersion: 2
  m_Size: {x: 1, y: 1, z: 1}
  m_Center: {x: 0, y: 0, z: 0}
--- !u!23 &2139745003
MeshRenderer:
  m_ObjectHideFlags: 0
  m_CorrespondingSourceObject: {fileID: 0}
  m_PrefabInstance: {fileID: 0}
  m_PrefabAsset: {fileID: 0}
  m_GameObject: {fileID: 2139745001}
  m_Enabled: 1
  m_CastShadows: 1
  m_ReceiveShadows: 1
  m_DynamicOccludee: 1
  m_MotionVectors: 1
  m_LightProbeUsage: 1
  m_ReflectionProbeUsage: 1
  m_RenderingLayerMask: 1
  m_RendererPriority: 0
  m_Materials:
  - {fileID: 2100000, guid: 412f9cb2ea66aaa4fa4a9a4151df85fd, type: 2}
  m_StaticBatchInfo:
    firstSubMesh: 0
    subMeshCount: 0
  m_StaticBatchRoot: {fileID: 0}
  m_ProbeAnchor: {fileID: 0}
  m_LightProbeVolumeOverride: {fileID: 0}
  m_ScaleInLightmap: 1
  m_PreserveUVs: 0
  m_IgnoreNormalsForChartDetection: 0
  m_ImportantGI: 0
  m_StitchLightmapSeams: 0
  m_SelectedEditorRenderState: 3
  m_MinimumChartSize: 4
  m_AutoUVMaxDistance: 0.5
  m_AutoUVMaxAngle: 89
  m_LightmapParameters: {fileID: 0}
  m_SortingLayerID: 0
  m_SortingLayer: 0
  m_SortingOrder: 0
--- !u!33 &2139745004
MeshFilter:
  m_ObjectHideFlags: 0
  m_CorrespondingSourceObject: {fileID: 0}
  m_PrefabInstance: {fileID: 0}
  m_PrefabAsset: {fileID: 0}
  m_GameObject: {fileID: 2139745001}
  m_Mesh: {fileID: 10202, guid: 0000000000000000e000000000000000, type: 0}
--- !u!4 &2139745005
Transform:
  m_ObjectHideFlags: 0
  m_CorrespondingSourceObject: {fileID: 0}
  m_PrefabInstance: {fileID: 0}
  m_PrefabAsset: {fileID: 0}
  m_GameObject: {fileID: 2139745001}
  m_LocalRotation: {x: 0, y: 0, z: 0, w: 1}
  m_LocalPosition: {x: 0, y: 0, z: 0}
  m_LocalScale: {x: 10, y: 1, z: 10}
  m_Children: []
  m_Father: {fileID: 0}
  m_RootOrder: 2
  m_LocalEulerAnglesHint: {x: 0, y: 0, z: 0}
